Factors and Forcats
…
# view dataset
income_predict_data

## # A tibble: 32,561 x 15
##      age workclass fnlwgt education education_num marital_status occupation
##    <int> <chr>      <int> <chr>             <int> <chr>          <chr>     
##  1    39 State-gov  77516 Bachelors            13 Never-married  Adm-cleri
##  2    50 Self-emp  83311 Bachelors            13 Married-civ-s Exec-mana
##  3    38 Private   215646 HS-grad               9 Divorced       Handlers-
##  4    53 Private   234721 11th                  7 Married-civ-s Handlers-
##  5    28 Private   338409 Bachelors            13 Married-civ-s Prof-spec
##  6    37 Private   284582 Masters              14 Married-civ-s Exec-mana
##  7    49 Private   160187 9th                   5 Married-spous Other-ser
##  8    52 Self-emp 209642 HS-grad               9 Married-civ-s Exec-mana
##  9    31 Private    45781 Masters              14 Never-married  Prof-spec
## 10    42 Private   159449 Bachelors            13 Married-civ-s Exec-mana
## # ... with 32,551 more rows, and 8 more variables: relationship <chr>,
## #   race <chr>, sex <chr>, capital_gains <int>, capital_loss <int>,
## #   hours_per_week <int>, native_country <chr>, income_prediction <chr>
…
